Nhat_ky_cv/new_version/tb.vcd
$date
	Mon Oct 20 15:28:22 2025
$end
$version
	Icarus Verilog
$end
$timescale
	1ps
$end
$scope module tb_matrix_multiplier $end
$var wire 1 ! done $end
$var wire 1 " Hq_out_valid $end
$var wire 16 # Hq_out_r [15:0] $end
$var wire 16 $ Hq_out_i [15:0] $end
$var reg 16 % H_in_i [15:0] $end
$var reg 16 & H_in_r [15:0] $end
$var reg 1 ' H_in_valid $end
$var reg 1 ( clk $end
$var reg 4 ) q_index [3:0] $end
$var reg 1 * rst $end
$var reg 1 + start $end
$scope module dut $end
$var wire 16 , H_in_i [15:0] $end
$var wire 16 - H_in_r [15:0] $end
$var wire 1 ' H_in_valid $end
$var wire 1 ( clk $end
$var wire 4 . q_index [3:0] $end
$var wire 1 * rst $end
$var wire 1 + start $end
$var wire 1 / mac_result_valid $end
$var wire 16 0 mac_result_r [15:0] $end
$var wire 16 1 mac_result_i [15:0] $end
$var reg 16 2 Hq_out_i [15:0] $end
$var reg 16 3 Hq_out_r [15:0] $end
$var reg 1 " Hq_out_valid $end
$var reg 1 ! all_16_hq_done $end
$var reg 1 4 hq_one_matrix_done $end
$var reg 2 5 i_counter [1:0] $end
$var reg 1 6 j_counter $end
$var reg 2 7 k_counter [1:0] $end
$var reg 2 8 load_col_cnt [1:0] $end
$var reg 2 9 load_row_cnt [1:0] $end
$var reg 1 : mac_en $end
$var reg 4 ; next_state [3:0] $end
$var reg 4 < q_counter_reg [3:0] $end
$var reg 16 = s_data_i [15:0] $end
$var reg 16 > s_data_r [15:0] $end
$var reg 4 ? state [3:0] $end
$scope module c_mac_inst $end
$var wire 1 ( clk $end
$var wire 16 @ in_ai [15:0] $end
$var wire 16 A in_ar [15:0] $end
$var wire 16 B in_bi [15:0] $end
$var wire 16 C in_br [15:0] $end
$var wire 1 D mac_clear $end
$var wire 1 : mac_en $end
$var wire 1 * rst $end
$var wire 1 E product_valid $end
$var wire 16 F product_r [15:0] $end
$var wire 16 G product_i [15:0] $end
$var wire 1 H mac_rs_valid $end
$var reg 6 I data_valid_pipe [5:0] $end
$var reg 2 J mac_counter [1:0] $end
$var reg 16 K mac_i_out [15:0] $end
$var reg 32 L mac_i_reg [31:0] $end
$var reg 32 M mac_i_tmp [31:0] $end
$var reg 16 N mac_r_out [15:0] $end
$var reg 32 O mac_r_reg [31:0] $end
$var reg 32 P mac_r_tmp [31:0] $end
$var reg 1 / mac_result_valid $end
$scope module cmult_inst $end
$var wire 16 Q ai [15:0] $end
$var wire 16 R ar [15:0] $end
$var wire 16 S bi [15:0] $end
$var wire 16 T br [15:0] $end
$var wire 1 ( clk $end
$var wire 16 U pi [15:0] $end
$var wire 16 V pr [15:0] $end
$var wire 1 * rst $end
$var wire 16 W tmp_multr [15:0] $end
$var wire 16 X tmp_multi [15:0] $end
$var wire 16 Y tmp_mult0 [15:0] $end
$var wire 1 Z ovr_multr $end
$var wire 1 [ ovr_multi $end
$var wire 1 \ ovr_mult0 $end
$var reg 16 ] addcommon [15:0] $end
$var reg 16 ^ addi [15:0] $end
$var reg 16 _ addr [15:0] $end
$var reg 16 ` ai_d [15:0] $end
$var reg 16 a ai_dd [15:0] $end
$var reg 16 b ai_ddd [15:0] $end
$var reg 16 c ai_dddd [15:0] $end
$var reg 16 d ar_d [15:0] $end
$var reg 16 e ar_dd [15:0] $end
$var reg 16 f ar_ddd [15:0] $end
$var reg 16 g ar_dddd [15:0] $end
$var reg 16 h bi_d [15:0] $end
$var reg 16 i bi_dd [15:0] $end
$var reg 16 j bi_ddd [15:0] $end
$var reg 16 k br_d [15:0] $end
$var reg 16 l br_dd [15:0] $end
$var reg 16 m br_ddd [15:0] $end
$var reg 16 n common [15:0] $end
$var reg 16 o commonr1 [15:0] $end
$var reg 16 p commonr2 [15:0] $end
$var reg 16 q mult0 [15:0] $end
$var reg 16 r multi [15:0] $end
$var reg 16 s multr [15:0] $end
$var reg 16 t pi_int [15:0] $end
$var reg 16 u pr_int [15:0] $end
$scope module qmult_common $end
$var wire 16 v i_multiplicand [15:0] $end
$var wire 16 w i_multiplier [15:0] $end
$var wire 1 \ ovr $end
$var wire 32 x product_64bit [31:0] $end
$var wire 16 y o_result [15:0] $end
$upscope $end
$scope module qmult_imag $end
$var wire 16 z i_multiplicand [15:0] $end
$var wire 16 { i_multiplier [15:0] $end
$var wire 1 [ ovr $end
$var wire 32 | product_64bit [31:0] $end
$var wire 16 } o_result [15:0] $end
$upscope $end
$scope module qmult_real $end
$var wire 16 ~ i_multiplicand [15:0] $end
$var wire 16 !" i_multiplier [15:0] $end
$var wire 1 Z ovr $end
$var wire 32 "" product_64bit [31:0] $end
$var wire 16 #" o_result [15:0] $end
$upscope $end
$upscope $end
$upscope $end
$scope begin sq_block $end
$upscope $end
$upscope $end
$scope task drive_h_matrix $end
$var integer 32 $" i [31:0] $end
$var integer 32 %" j [31:0] $end
$upscope $end
$scope task get_s_matrix $end
$var reg 4 &" q_idx [3:0] $end
$var integer 32 '" i [31:0] $end
$var integer 32 (" j [31:0] $end
$upscope $end
$scope task initialize_signals $end
$upscope $end
$scope task print_results $end
$var reg 4 )" q_idx [3:0] $end
$var integer 32 *" i [31:0] $end
$upscope $end
$scope task read_h_matrix_from_file $end
$var reg 16 +" temp_data [15:0] $end
$var integer 32 ," dummy [31:0] $end
$var integer 32 -" h_imag_fd [31:0] $end
$var integer 32 ." h_real_fd [31:0] $end
$var integer 32 /" i [31:0] $end
$var integer 32 0" j [31:0] $end
$upscope $end
$scope task reset_dut $end
$upscope $end
$scope task run_and_capture_hq $end
$var reg 4 1" q_idx [3:0] $end
$var integer 32 2" i [31:0] $end
$var integer 32 3" j [31:0] $end
$upscope $end
$upscope $end
$enddefinitions $end
#0
$dumpvars
bx 3"
bx 2"
bx 1"
bx 0"
bx /"
bx ."
bx -"
bx ,"
bx +"
bx *"
bx )"
bx ("
bx '"
bx &"
bx %"
bx $"
bx #"
bx ""
bx !"
bx ~
bx }
bx |
bx {
bx z
bx y
bx x
bx w
bx v
bx u
bx t
bx s
bx r
bx q
bx p
bx o
bx n
bx m
bx l
bx k
bx j
bx i
bx h
bx g
bx f
bx e
bx d
bx c
bx b
bx a
bx `
bx _
bx ^
bx ]
x\
x[
xZ
bx Y
bx X
bx W
bx V
bx U
b0 T
b0 S
b0 R
b0 Q
bx P
b0 O
b0 N
bx M
b0 L
b0 K
b0 J
b0 I
0H
bx G
bx F
0E
xD
b0 C
b0 B
b0 A
b0 @
b0 ?
b0 >
b0 =
b0 <
b0 ;
0:
b0 9
b0 8
b0 7
06
b0 5
04
b0 3
b0 2
b0 1
b0 0
x/
b0 .
b0 -
b0 ,
0+
1*
b0 )
0(
0'
b0 &
b0 %
b0 $
b0 #
0"
0!
$end
#5000
b0 h
b0 k
b0 `
b0 d
1(
#10000
0(
#15000
b0 ]
b0 v
1(
#20000
0(
0*
#25000
bx0000000000 Y
bx0000000000 y
0\
0D
0/
b0 x
b0 i
b0 w
b0 l
b0 a
b0 e
1(
#30000
0(
#35000
b0 b
b0 f
bx0000000000 q
b0 j
b0 m
1(
#40000
b11 ;
0(
1+
b1 )
b1 .
b1 1"
b1 ,"
b10000001101001 +"
b100 /"
b100 0"
b10000000000000000000000000000100 -"
b10000000000000000000000000000011 ."
#45000
bx0000000000 W
bx0000000000 #"
0Z
bx0000000000 X
bx0000000000 }
0[
1:
b11 ?
bx0000000000 n
b0 ""
b0 _
b0 ~
b0 g
b0 !"
b0 |
b0 ^
b0 z
b0 c
b0 {
b11 ;
0+
1(
#50000
0(
#55000
b1 I
b1 7
bx0000000000 p
bx0000000000 r
bx0000000000 o
bx0000000000 s
b1011100101101100 `
b1101000010101011 d
1:
b1011100101101100 %
b1011100101101100 ,
b1011100101101100 @
b1011100101101100 Q
b1101000010101011 &
b1101000010101011 -
b1101000010101011 A
b1101000010101011 R
1'
b0 %"
b0 $"
1(
#60000
0(
#65000
1:
b10 7
b11 I
b1011100101101100 a
b1101000010101011 e
b1011100111111 ]
b1011100111111 v
b1001000001110000 %
b1001000001110000 ,
b1001000001110000 @
b1001000001110000 Q
b1100001101111011 &
b1100001101111011 -
b1100001101111011 A
b1100001101111011 R
b1 %"
1(
#70000
0(
#75000
b100 ;
1:
b111 I
b11 7
b1011100101101100 b
b1101000010101011 f
b11011010111110 `
b1010101101010 d
b11011010111110 %
b11011010111110 ,
b11011010111110 @
b11011010111110 Q
b1010101101010 &
b1010101101010 -
b1010101101010 A
b1010101101010 R
b10 %"
1(
#80000
0(
#85000
0:
b0 7
b100 ?
b1111 I
b11011010111110 a
b1010101101010 e
b1101111010101100 ]
b1101111010101100 v
b1101000010101011 g
b1101000010101011 !"
b1011100101101100 c
b1011100101101100 {
b100000000011000 %
b100000000011000 ,
b100000000011000 @
b100000000011000 Q
b1000101010000111 &
b1000101010000111 -
b1000101010000111 A
b1000101010000111 R
b11 %"
1(
#90000
0(
#95000
b11110 I
b11011010111110 b
b1010101101010 f
b101101111110111 `
b101011100111101 d
b101101111110111 %
b101101111110111 ,
b101101111110111 @
b101101111110111 Q
b101011100111101 &
b101011100111101 -
b101011100111101 A
b101011100111101 R
b1 $"
b0 %"
1(
#100000
0(
#105000
1E
b111100 I
b101101111110111 a
b101011100111101 e
b1111101101000110 ]
b1111101101000110 v
b1010101101010 g
b1010101101010 !"
b11011010111110 c
b11011010111110 {
b101110011100001 %
b101110011100001 ,
b101110011100001 @
b101110011100001 Q
b110100001011010 &
b110100001011010 -
b110100001011010 A
b110100001011010 R
b1 %"
1(
#110000
0(
#115000
b1 J
b111000 I
bx L
bx O
b101101111110111 b
b101011100111101 f
b101010111000000 `
b1010101101101100 d
b101010111000000 %
b101010111000000 ,
b101010111000000 @
b101010111000000 Q
b1010101101101100 &
b1010101101101100 -
b1010101101101100 A
b1010101101101100 R
b10 %"
1(
#120000
0(
#125000
b110000 I
b10 J
b101010111000000 a
b1010101101101100 e
b101010110101100 ]
b101010110101100 v
b101011100111101 g
b101011100111101 !"
b101101111110111 c
b101101111110111 {
b111010011001101 %
b111010011001101 ,
b111010011001101 @
b111010011001101 Q
b1110000010110001 &
b1110000010110001 -
b1110000010110001 A
b1110000010110001 R
b11 %"
1(
#130000
0(
#135000
1H
b11 J
b100000 I
b101010111000000 b
b1010101101101100 f
b1111110110010101 `
b1011010101110010 d
b1111110110010101 %
b1111110110010101 ,
b1111110110010101 @
b1111110110010101 Q
b1011010101110010 &
b1011010101110010 -
b1011010101110010 A
b1011010101110010 R
b10 $"
b0 %"
1(
#140000
0(
#145000
0H
0E
b11 ;
bx $
bx 2
bx #
bx 3
1"
bx 1
bx K
bx 0
bx N
b0 I
1D
1/
b0 J
b1111110110010101 a
b1011010101110010 e
b1011011111011101 ]
b1011011111011101 v
b1010101101101100 g
b1010101101101100 !"
b101010111000000 c
b101010111000000 {
b1110010111110000 %
b1110010111110000 ,
b1110010111110000 @
b1110010111110000 Q
b1010100100111111 &
b1010100100111111 -
b1010100100111111 A
b1010100100111111 R
b1 %"
1(
#150000
0(
#155000
1:
0"
0D
0/
b0 L
b0 O
16
b11 ?
b1111110110010101 b
b1011010101110010 f
b110011001010011 `
b10010111010111 d
b110011001010011 %
b110011001010011 ,
b110011001010011 @
b110011001010011 Q
b10010111010111 &
b10010111010111 -
b10010111010111 A
b10010111010111 R
b10 %"
1(
#160000
0(
#165000
1:
b1 7
b1 I
b110011001010011 a
b10010111010111 e
b1011111110000100 ]
b1011111110000100 v
b1011010101110010 g
b1011010101110010 !"
b1111110110010101 c
b1111110110010101 {
b101000111101110 %
b101000111101110 ,
b101000111101110 @
b101000111101110 Q
b101010100111100 &
b101010100111100 -
b101010100111100 A
b101010100111100 R
b11 %"
1(
#170000
0(
#175000
1:
b11 I
b10 7
b110011001010011 b
b10010111010111 f
b10100001101111 `
b1110110011101000 d
b10100001101111 %
b10100001101111 ,
b10100001101111 @
b10100001101111 Q
b1110110011101000 &
b1110110011101000 -
b1110110011101000 A
b1110110011101000 R
b11 $"
b0 %"
1(
#180000
0(
#185000
b100 ;
1:
b11 7
b111 I
b10100001101111 a
b1110110011101000 e
b1100010001111001 ]
b1100010001111001 v
b10010111010111 g
b10010111010111 !"
b110011001010011 c
b110011001010011 {
b100110100111101 %
b100110100111101 ,
b100110100111101 @
b100110100111101 Q
b10100011101011 &
b10100011101011 -
b10100011101011 A
b10100011101011 R
b1 %"
1(
#190000
0(
#195000
0:
b1111 I
b0 7
b100 ?
b10100001101111 b
b1110110011101000 f
b1010101110101010 `
b1010110001000001 d
b1010101110101010 %
b1010101110101010 ,
b1010101110101010 @
b1010101110101010 Q
b1010110001000001 &
b1010110001000001 -
b1010110001000001 A
b1010110001000001 R
b10 %"
1(
#200000
0(
#205000
b11110 I
b1010101110101010 a
b1010110001000001 e
b10010111 ]
b10010111 v
b1110110011101000 g
b1110110011101000 !"
b10100001101111 c
b10100001101111 {
b10000001101001 %
b10000001101001 ,
b10000001101001 @
b10000001101001 Q
b111011110000011 &
b111011110000011 -
b111011110000011 A
b111011110000011 R
b11 %"
1(
#210000
0(
#215000
1E
b111100 I
b1010101110101010 b
b1010110001000001 f
b10000001101001 `
b111011110000011 d
b0 3"
b0 2"
0'
b100 $"
b100 %"
1(
#220000
0(
#225000
bx L
bx O
b111000 I
b1 J
b10000001101001 a
b111011110000011 e
b101011100011010 ]
b101011100011010 v
b1010110001000001 g
b1010110001000001 !"
b1010101110101010 c
b1010101110101010 {
1(
#230000
0(
#235000
b10 J
b110000 I
b10000001101001 b
b111011110000011 f
1(
#240000
0(
#245000
1H
b100000 I
b11 J
b111011110000011 g
b111011110000011 !"
b10000001101001 c
b10000001101001 {
1(
#250000
0(
#255000
0H
0E
b11 ;
1"
b0 J
b0 I
1D
1/
1(
#260000
0(
#265000
1:
0"
b1 5
06
b11 ?
b0 L
b0 O
0D
0/
1(
#270000
0(
#275000
1:
b1 I
b1 7
b1 3"
1(
#280000
0(
#285000
1:
b10 7
b11 I
1(
#290000
0(
#295000
b100 ;
1:
b111 I
b11 7
1(
#300000
0(
#305000
0:
b0 7
b100 ?
b1111 I
1(
#310000
0(
#315000
b11110 I
1(
#320000
0(
#325000
1E
b111100 I
1(
#330000
0(
#335000
b1 J
b111000 I
bx L
bx O
1(
#340000
0(
#345000
b110000 I
b10 J
1(
#350000
0(
#355000
1H
b11 J
b100000 I
1(
#360000
0(
#365000
0H
0E
b11 ;
1"
b0 I
1D
1/
b0 J
1(
#370000
0(
#375000
1:
0"
0D
0/
b0 L
b0 O
16
b11 ?
1(
#380000
0(
#385000
1:
b1 7
b1 I
b1 2"
b0 3"
1(
#390000
0(
#395000
1:
b11 I
b10 7
1(
#400000
0(
#405000
b100 ;
1:
b11 7
b111 I
1(
#410000
0(
#415000
0:
b1111 I
b0 7
b100 ?
1(
#420000
0(
#425000
b11110 I
1(
#430000
0(
#435000
1E
b111100 I
1(
#440000
0(
#445000
bx L
bx O
b111000 I
b1 J
1(
#450000
0(
#455000
b10 J
b110000 I
1(
#460000
0(
#465000
1H
b100000 I
b11 J
1(
#470000
0(
#475000
0H
0E
b11 ;
1"
b0 J
b0 I
1D
1/
1(
#480000
0(
#485000
1:
0"
b10 5
06
b11 ?
b0 L
b0 O
0D
0/
1(
#490000
0(
#495000
1:
b1 I
b1 7
b1 3"
1(
#500000
0(
#505000
1:
b10 7
b11 I
1(
#510000
0(
#515000
b100 ;
1:
b111 I
b11 7
1(
#520000
0(
#525000
0:
b0 7
b100 ?
b1111 I
1(
#530000
0(
#535000
b11110 I
1(
#540000
0(
#545000
1E
b111100 I
1(
#550000
0(
#555000
b1 J
b111000 I
bx L
bx O
1(
#560000
0(
#565000
b110000 I
b10 J
1(
#570000
0(
#575000
1H
b11 J
b100000 I
1(
#580000
0(
#585000
0H
0E
b11 ;
1"
b0 I
1D
1/
b0 J
1(
#590000
0(
#595000
1:
0"
0D
0/
b0 L
b0 O
16
b11 ?
1(
#600000
0(
#605000
1:
b1 7
b1 I
b10 2"
b0 3"
1(
#610000
0(
#615000
1:
b11 I
b10 7
1(
#620000
0(
#625000
b100 ;
1:
b11 7
b111 I
1(
#630000
0(
#635000
0:
b1111 I
b0 7
b100 ?
1(
#640000
0(
#645000
b11110 I
1(
#650000
0(
#655000
1E
b111100 I
1(
#660000
0(
#665000
bx L
bx O
b111000 I
b1 J
1(
#670000
0(
#675000
b10 J
b110000 I
1(
#680000
0(
#685000
1H
b100000 I
b11 J
1(
#690000
0(
#695000
0H
0E
b11 ;
1"
b0 J
b0 I
1D
1/
1(
#700000
0(
#705000
1:
0"
b11 5
06
b11 ?
b0 L
b0 O
0D
0/
1(
#710000
0(
#715000
1:
b1 I
b1 7
b1 3"
1(
#720000
0(
#725000
1:
b10 7
b11 I
1(
#730000
0(
#735000
b100 ;
1:
b111 I
b11 7
1(
#740000
0(
#745000
0:
b0 7
b100 ?
b1111 I
1(
#750000
0(
#755000
b11110 I
1(
#760000
0(
#765000
1E
b111100 I
1(
#770000
0(
#775000
b1 J
b111000 I
bx L
bx O
1(
#780000
0(
#785000
b110000 I
b10 J
1(
#790000
0(
#795000
1H
b11 J
b100000 I
1(
#800000
0(
#805000
0H
0E
b11 ;
1"
b0 I
1D
1/
b0 J
1(
#810000
0(
#815000
1:
0"
0D
0/
b0 L
b0 O
16
b11 ?
1(
#820000
0(
#825000
1:
b1 7
b1 I
b11 2"
b0 3"
1(
#830000
0(
#835000
1:
b11 I
b10 7
1(
#840000
0(
#845000
b100 ;
1:
b11 7
b111 I
1(
#850000
0(
#855000
0:
b1111 I
b0 7
b100 ?
1(
#860000
0(
#865000
b11110 I
1(
#870000
0(
#875000
1E
b111100 I
1(
#880000
0(
#885000
bx L
bx O
b111000 I
b1 J
1(
#890000
0(
#895000
b10 J
b110000 I
1(
#900000
0(
#905000
1H
b100000 I
b11 J
1(
#910000
0(
#915000
0H
0E
b11 ;
14
1"
b0 J
b0 I
1D
1/
1(
#920000
0(
#925000
1:
04
0"
b1 <
b0 5
06
b11 ?
b0 L
b0 O
0D
0/
1(
#930000
0(
#935000
1:
b1 I
b1 7
b1 3"
1(
#940000
0(
#945000
1:
b10 7
b11 I
1(
#950000
0(
#955000
b100 ;
1:
b100000 >
b100000 C
b100000 T
b111 I
b11 7
1(
#960000
0(
#965000
b0 >
b0 C
b0 T
0:
b0 7
b100 ?
b1111 I
b100000 k
1(
#970000
0(
#975000
b11110 I
b100000 l
b0 k
1(
#980000
0(
#985000
1E
b111100 I
b100000 m
b0 l
1(
#990000
0(
#995000
b1 J
b111000 I
bx L
bx O
b1000000110100100000 |
b100000 ^
b100000 z
b11101111000001100000 ""
b100000 _
b100000 ~
b0 m
1(
#1000000
0(
#1005000
b110000 I
b10 J
b0 ""
b0 _
b0 ~
b0 |
b0 ^
b0 z
1(
#1010000
0(
#1015000
1H
b11 J
b100000 I
1(
#1020000
0(
#1025000
0H
0E
b11 ;
1"
b0 I
1D
1/
b0 J
1(
#1030000
0(
#1035000
1:
0"
0D
0/
b0 L
b0 O
16
b11 ?
1(
#1040000
0(
#1045000
1:
b1 7
b1 I
b100 2"
b10 3"
1(
#1050000
0(
#1055000
1:
b100000 >
b100000 C
b100000 T
b11 I
b10 7
1(
#1060000
0(
#1065000
b100 ;
1:
b0 >
b0 C
b0 T
b11 7
b111 I
b100000 k
1(
#1070000
0(
#1075000
0:
b1111 I
b0 7
b100 ?
b100000 l
b0 k
1(
#1080000
0(
#1085000
b11110 I
b100000 m
b0 l
1(
#1090000
0(
#1095000
1E
b111100 I
b1000000110100100000 |
b100000 ^
b100000 z
b11101111000001100000 ""
b100000 _
b100000 ~
b0 m
1(
#1100000
0(
#1105000
bx L
bx O
b111000 I
b1 J
b0 ""
b0 _
b0 ~
b0 |
b0 ^
b0 z
1(
#1110000
0(
#1115000
b10 J
b110000 I
1(
#1120000
0(
#1125000
1H
b100000 I
b11 J
1(
#1130000
0(
#1135000
0H
0E
b11 ;
1"
b0 J
b0 I
1D
1/
1(
#1140000
0(
#1145000
1:
0"
b1 5
06
b11 ?
b0 L
b0 O
0D
0/
1(
#1150000
0(
#1155000
1:
b1 I
b1 7
1(
#1160000
0(
#1165000
1:
b10 7
b11 I
1(
#1170000
0(
#1175000
b100 ;
1:
b100000 >
b100000 C
b100000 T
b111 I
b11 7
1(
#1180000
0(
#1185000
b0 >
b0 C
b0 T
0:
b0 7
b100 ?
b1111 I
b100000 k
1(
#1190000
0(
#1195000
b11110 I
b100000 l
b0 k
1(
#1200000
0(
#1205000
1E
b111100 I
b100000 m
b0 l
1(
#1210000
0(
#1215000
b1 J
b111000 I
bx L
bx O
b1000000110100100000 |
b100000 ^
b100000 z
b11101111000001100000 ""
b100000 _
b100000 ~
b0 m
1(
#1220000
0(
#1225000
b110000 I
b10 J
b0 ""
b0 _
b0 ~
b0 |
b0 ^
b0 z
1(
#1230000
0(
#1235000
1H
b11 J
b100000 I
1(
#1240000
0(
#1245000
0H
0E
b11 ;
1"
b0 I
1D
1/
b0 J
1(
#1250000
0(
#1255000
1:
0"
0D
0/
b0 L
b0 O
16
b11 ?
1(
#1260000
0(
#1265000
1:
b1 7
b1 I
1(
#1270000
0(
#1275000
1:
b100000 >
b100000 C
b100000 T
b11 I
b10 7
1(
#1280000
0(
#1285000
b100 ;
1:
b0 >
b0 C
b0 T
b11 7
b111 I
b100000 k
1(
#1290000
0(
#1295000
0:
b1111 I
b0 7
b100 ?
b100000 l
b0 k
1(
#1300000
0(
#1305000
b11110 I
b100000 m
b0 l
1(
#1310000
0(
#1315000
1E
b111100 I
b1000000110100100000 |
b100000 ^
b100000 z
b11101111000001100000 ""
b100000 _
b100000 ~
b0 m
1(
#1320000
0(
#1325000
bx L
bx O
b111000 I
b1 J
b0 ""
b0 _
b0 ~
b0 |
b0 ^
b0 z
1(
#1330000
0(
#1335000
b10 J
b110000 I
1(
#1340000
0(
#1345000
1H
b100000 I
b11 J
1(
#1350000
0(
#1355000
0H
0E
b11 ;
1"
b0 J
b0 I
1D
1/
1(
#1360000
0(
#1365000
1:
0"
b10 5
06
b11 ?
b0 L
b0 O
0D
0/
1(
#1370000
0(
#1375000
1:
b1 I
b1 7
1(
#1380000
0(
#1385000
1:
b10 7
b11 I
1(
#1390000
0(
#1395000
b100 ;
1:
b100000 >
b100000 C
b100000 T
b111 I
b11 7
1(
#1400000
0(
#1405000
b0 >
b0 C
b0 T
0:
b0 7
b100 ?
b1111 I
b100000 k
1(
#1410000
0(
#1415000
b11110 I
b100000 l
b0 k
1(
#1420000
0(
#1425000
1E
b111100 I
b100000 m
b0 l
1(
#1430000
0(
#1435000
b1 J
b111000 I
bx L
bx O
b1000000110100100000 |
b100000 ^
b100000 z
b11101111000001100000 ""
b100000 _
b100000 ~
b0 m
1(
#1440000
0(
#1445000
b110000 I
b10 J
b0 ""
b0 _
b0 ~
b0 |
b0 ^
b0 z
1(
#1450000
0(
#1455000
1H
b11 J
b100000 I
1(
#1460000
0(
#1465000
0H
0E
b11 ;
1"
b0 I
1D
1/
b0 J
1(
#1470000
0(
#1475000
1:
0"
0D
0/
b0 L
b0 O
16
b11 ?
1(
#1480000
0(
#1485000
1:
b1 7
b1 I
1(
#1490000
0(
#1495000
1:
b100000 >
b100000 C
b100000 T
b11 I
b10 7
1(
#1500000
0(
#1505000
b100 ;
1:
b0 >
b0 C
b0 T
b11 7
b111 I
b100000 k
1(
#1510000
0(
#1515000
0:
b1111 I
b0 7
b100 ?
b100000 l
b0 k
1(
#1520000
0(
#1525000
b11110 I
b100000 m
b0 l
1(
#1530000
0(
#1535000
1E
b111100 I
b1000000110100100000 |
b100000 ^
b100000 z
b11101111000001100000 ""
b100000 _
b100000 ~
b0 m
1(
#1540000
0(
#1545000
bx L
bx O
b111000 I
b1 J
b0 ""
b0 _
b0 ~
b0 |
b0 ^
b0 z
1(
#1550000
0(
#1555000
b10 J
b110000 I
1(
#1560000
0(
#1565000
1H
b100000 I
b11 J
1(
#1570000
0(
#1575000
0H
0E
b11 ;
1"
b0 J
b0 I
1D
1/
1(
#1580000
0(
#1585000
1:
0"
b11 5
06
b11 ?
b0 L
b0 O
0D
0/
1(
#1590000
0(
#1595000
1:
b1 I
b1 7
1(
#1600000
0(
#1605000
1:
b10 7
b11 I
1(
#1610000
0(
#1615000
b100 ;
1:
b100000 >
b100000 C
b100000 T
b111 I
b11 7
1(
#1620000
0(
#1625000
b0 >
b0 C
b0 T
0:
b0 7
b100 ?
b1111 I
b100000 k
1(
#1630000
0(
#1635000
b11110 I
b100000 l
b0 k
1(
#1640000
0(
#1645000
1E
b111100 I
b100000 m
b0 l
1(
#1650000
0(
#1655000
b1 J
b111000 I
bx L
bx O
b1000000110100100000 |
b100000 ^
b100000 z
b11101111000001100000 ""
b100000 _
b100000 ~
b0 m
1(
#1660000
0(
#1665000
b110000 I
b10 J
b0 ""
b0 _
b0 ~
b0 |
b0 ^
b0 z
1(
#1670000
0(
#1675000
1H
b11 J
b100000 I
1(
#1680000
0(
#1685000
0H
0E
b11 ;
1"
b0 I
1D
1/
b0 J
1(
#1690000
0(
#1695000
1:
0"
0D
0/
b0 L
b0 O
16
b11 ?
1(
#1700000
0(
#1705000
1:
b1 7
b1 I
1(
#1710000
0(
#1715000
1:
b100000 >
b100000 C
b100000 T
b11 I
b10 7
1(
#1720000
0(
#1725000
b100 ;
1:
b0 >
b0 C
b0 T
b11 7
b111 I
b100000 k
1(
#1730000
0(
#1735000
0:
b1111 I
b0 7
b100 ?
b100000 l
b0 k
1(
#1740000
0(
#1745000
b11110 I
b100000 m
b0 l
1(
#1750000
0(
#1755000
1E
b111100 I
b1000000110100100000 |
b100000 ^
b100000 z
b11101111000001100000 ""
b100000 _
b100000 ~
b0 m
1(
#1760000
0(
#1765000
bx L
bx O
b111000 I
b1 J
b0 ""
b0 _
b0 ~
b0 |
b0 ^
b0 z
1(
#1770000
0(
#1775000
b10 J
b110000 I
1(
#1780000
0(
#1785000
1H
b100000 I
b11 J
1(
#1790000
0(
#1795000
0H
0E
b11 ;
14
1"
b0 J
b0 I
1D
1/
1(
#1800000
0(
#1805000
1:
04
0"
b10 <
b0 5
06
b11 ?
b0 L
b0 O
0D
0/
1(
#1810000
0(
#1815000
1:
b1 I
b1 7
1(
#1820000
0(
#1825000
1:
b10 7
b11 I
1(
#1830000
0(
#1835000
b100 ;
1:
b111 I
b11 7
1(
#1840000
0(
#1845000
0:
b0 7
b100 ?
b1111 I
1(
#1850000
0(
#1855000
b11110 I
1(
#1860000
0(
#1865000
1E
b111100 I
1(
#1870000
0(
#1875000
b1 J
b111000 I
bx L
bx O
1(
#1880000
0(
#1885000
b110000 I
b10 J
1(
#1890000
0(
#1895000
1H
b11 J
b100000 I
1(
#1900000
0(
#1905000
0H
0E
b11 ;
1"
b0 I
1D
1/
b0 J
1(
#1910000
0(
#1915000
1:
0"
0D
0/
b0 L
b0 O
16
b11 ?
1(
#1920000
0(
#1925000
1:
b1 7
b1 I
1(
#1930000
0(
#1935000
1:
b11 I
b10 7
1(
#1940000
0(
#1945000
b100 ;
1:
b11 7
b111 I
1(
#1950000
0(
#1955000
0:
b1111 I
b0 7
b100 ?
1(
#1960000
0(
#1965000
b11110 I
1(
#1970000
0(
#1975000
1E
b111100 I
1(
#1980000
0(
#1985000
bx L
bx O
b111000 I
b1 J
1(
#1990000
0(
#1995000
b10 J
b110000 I
1(
#2000000
0(
#2005000
1H
b100000 I
b11 J
1(
#2010000
0(
#2015000
0H
0E
b11 ;
1"
b0 J
b0 I
1D
1/
1(
#2020000
0(
#2025000
1:
0"
b1 5
06
b11 ?
b0 L
b0 O
0D
0/
1(
#2030000
0(
#2035000
1:
b1 I
b1 7
1(
#2040000
0(
#2045000
1:
b10 7
b11 I
1(
#2050000
0(
#2055000
b100 ;
1:
b111 I
b11 7
1(
#2060000
0(
#2065000
0:
b0 7
b100 ?
b1111 I
1(
#2070000
0(
#2075000
b11110 I
1(
#2080000
0(
#2085000
1E
b111100 I
1(
#2090000
0(
#2095000
b1 J
b111000 I
bx L
bx O
1(
#2100000
0(
#2105000
b110000 I
b10 J
1(
#2110000
0(
#2115000
1H
b11 J
b100000 I
1(
#2120000
0(
#2125000
0H
0E
b11 ;
1"
b0 I
1D
1/
b0 J
1(
#2130000
0(
#2135000
1:
0"
0D
0/
b0 L
b0 O
16
b11 ?
1(
#2140000
0(
#2145000
1:
b1 7
b1 I
1(
#2150000
0(
#2155000
1:
b11 I
b10 7
1(
#2160000
0(
#2165000
b100 ;
1:
b11 7
b111 I
1(
#2170000
0(
#2175000
0:
b1111 I
b0 7
b100 ?
1(
#2180000
0(
#2185000
b11110 I
1(
#2190000
0(
#2195000
1E
b111100 I
1(
#2200000
0(
#2205000
bx L
bx O
b111000 I
b1 J
1(
#2210000
0(
#2215000
b10 J
b110000 I
1(
#2220000
0(
#2225000
1H
b100000 I
b11 J
1(
#2230000
0(
#2235000
0H
0E
b11 ;
1"
b0 J
b0 I
1D
1/
1(
#2240000
0(
#2245000
1:
0"
b10 5
06
b11 ?
b0 L
b0 O
0D
0/
1(
#2250000
0(
#2255000
1:
b1 I
b1 7
1(
#2260000
0(
#2265000
1:
b10 7
b11 I
1(
#2270000
0(
#2275000
b100 ;
1:
b111 I
b11 7
1(
#2280000
0(
#2285000
0:
b0 7
b100 ?
b1111 I
1(
#2290000
0(
#2295000
b11110 I
1(
#2300000
0(
#2305000
1E
b111100 I
1(
#2310000
0(
#2315000
b1 J
b111000 I
bx L
bx O
1(
#2320000
0(
#2325000
b110000 I
b10 J
1(
#2330000
0(
#2335000
1H
b11 J
b100000 I
1(
#2340000
0(
#2345000
0H
0E
b11 ;
1"
b0 I
1D
1/
b0 J
1(
#2350000
0(
